EESchema Schematic File Version 2
LIBS:power
LIBS:device
LIBS:transistors
LIBS:conn
LIBS:linear
LIBS:regul
LIBS:74xx
LIBS:cmos4000
LIBS:adc-dac
LIBS:memory
LIBS:xilinx
LIBS:microcontrollers
LIBS:dsp
LIBS:microchip
LIBS:analog_switches
LIBS:motorola
LIBS:texas
LIBS:intel
LIBS:audio
LIBS:interface
LIBS:digital-audio
LIBS:philips
LIBS:display
LIBS:cypress
LIBS:siliconi
LIBS:opto
LIBS:atmel
LIBS:contrib
LIBS:valves
LIBS:ESP8266
LIBS:tp4056
LIBS:switches
LIBS:licencia_CC_by_SA
LIBS:ht7333-1
LIBS:FrosTool_ESP8266-cache
EELAYER 25 0
EELAYER END
$Descr A4 11693 8268
encoding utf-8
Sheet 1 2
Title "PCB-Kicad FrosTool"
Date ""
Rev "2"
Comp "Eco-Tec"
Comment1 "@fAndReS"
Comment2 "Se distribuye bajo una Licencia Creative Commons Atribución-CompartirIgual 4.0 "
Comment3 ""
Comment4 ""
$EndDescr
$Comp
L ESP-12E U2
U 1 1 59CAED20
P 3250 4950
F 0 "U2" H 3250 4850 50  0000 C CNN
F 1 "ESP-12E" H 3250 5050 50  0000 C CNN
F 2 "ESP8266:ESP-12E_SMD" H 3250 4950 50  0001 C CNN
F 3 "" H 3250 4950 50  0001 C CNN
	1    3250 4950
	1    0    0    -1  
$EndComp
$Comp
L Conn_01x01 J5
U 1 1 59D43147
P 8950 5350
F 0 "J5" H 8950 5450 50  0000 C CNN
F 1 "GND" V 9050 5350 50  0000 C CNN
F 2 "Connector_PinHeader_1.27mm:PinHeader_1x01_P1.27mm_Vertical" H 8950 5350 50  0001 C CNN
F 3 "" H 8950 5350 50  0001 C CNN
	1    8950 5350
	-1   0    0    1   
$EndComp
$Comp
L C_Small C1
U 1 1 59D43D7C
P 2350 1500
F 0 "C1" H 2200 1450 50  0000 L CNN
F 1 "100nF" H 2360 1420 50  0000 L CNN
F 2 "Capacitor_SMD:C_1206_3216Metric" H 2350 1500 50  0001 C CNN
F 3 "" H 2350 1500 50  0001 C CNN
	1    2350 1500
	1    0    0    -1  
$EndComp
$Comp
L GND #PWR01
U 1 1 59D446AA
P 3250 1800
F 0 "#PWR01" H 3250 1550 50  0001 C CNN
F 1 "GND" H 3250 1650 50  0000 C CNN
F 2 "" H 3250 1800 50  0001 C CNN
F 3 "" H 3250 1800 50  0001 C CNN
	1    3250 1800
	1    0    0    -1  
$EndComp
$Comp
L GND #PWR02
U 1 1 59D446FE
P 9450 4850
F 0 "#PWR02" H 9450 4600 50  0001 C CNN
F 1 "GND" V 9450 4650 50  0000 C CNN
F 2 "" H 9450 4850 50  0001 C CNN
F 3 "" H 9450 4850 50  0001 C CNN
	1    9450 4850
	0    -1   -1   0   
$EndComp
$Comp
L GND #PWR03
U 1 1 59D4485B
P 4250 5350
F 0 "#PWR03" H 4250 5100 50  0001 C CNN
F 1 "GND" H 4250 5200 50  0000 C CNN
F 2 "" H 4250 5350 50  0001 C CNN
F 3 "" H 4250 5350 50  0001 C CNN
	1    4250 5350
	0    -1   -1   0   
$EndComp
$Comp
L CP C2
U 1 1 59D44B80
P 4100 1550
F 0 "C2" H 3900 1500 50  0000 L CNN
F 1 "10uF" H 4125 1450 50  0000 L CNN
F 2 "Capacitor_Tantalum_SMD:CP_EIA-2012-12_Kemet-R" H 4138 1400 50  0001 C CNN
F 3 "" H 4100 1550 50  0001 C CNN
	1    4100 1550
	1    0    0    -1  
$EndComp
$Comp
L +3.3V #PWR04
U 1 1 59D44DD9
P 4700 1400
F 0 "#PWR04" H 4700 1250 50  0001 C CNN
F 1 "+3.3V" H 4700 1540 50  0000 C CNN
F 2 "" H 4700 1400 50  0001 C CNN
F 3 "" H 4700 1400 50  0001 C CNN
	1    4700 1400
	0    1    1    0   
$EndComp
$Comp
L +3.3V #PWR05
U 1 1 59D45AA6
P 9450 3850
F 0 "#PWR05" H 9450 3700 50  0001 C CNN
F 1 "+3.3V" V 9450 4100 50  0000 C CNN
F 2 "" H 9450 3850 50  0001 C CNN
F 3 "" H 9450 3850 50  0001 C CNN
	1    9450 3850
	0    1    1    0   
$EndComp
$Comp
L +3.3V #PWR06
U 1 1 59D45D80
P 2250 5350
F 0 "#PWR06" H 2250 5200 50  0001 C CNN
F 1 "+3.3V" H 2150 5500 50  0000 C CNN
F 2 "" H 2250 5350 50  0001 C CNN
F 3 "" H 2250 5350 50  0001 C CNN
	1    2250 5350
	0    -1   -1   0   
$EndComp
Text Notes 2250 850  0    60   ~ 0
POWER IN [Vin: 5.3V -> Vout 3.3V]
$Comp
L Conn_01x01 J8
U 1 1 59D47232
P 8000 5100
F 0 "J8" H 8000 5200 50  0000 C CNN
F 1 "GPIO14(D/A)" H 8300 5100 50  0000 C CNN
F 2 "Connector_PinHeader_1.27mm:PinHeader_1x01_P1.27mm_Vertical" H 8000 5100 50  0001 C CNN
F 3 "" H 8000 5100 50  0001 C CNN
	1    8000 5100
	1    0    0    -1  
$EndComp
$Comp
L GND #PWR07
U 1 1 59D47241
P 9450 5100
F 0 "#PWR07" H 9450 4850 50  0001 C CNN
F 1 "GND" V 9450 4900 50  0000 C CNN
F 2 "" H 9450 5100 50  0001 C CNN
F 3 "" H 9450 5100 50  0001 C CNN
	1    9450 5100
	0    -1   -1   0   
$EndComp
$Comp
L +3.3V #PWR08
U 1 1 59D47247
P 9450 4100
F 0 "#PWR08" H 9450 3950 50  0001 C CNN
F 1 "+3.3V" V 9450 4350 50  0000 C CNN
F 2 "" H 9450 4100 50  0001 C CNN
F 3 "" H 9450 4100 50  0001 C CNN
	1    9450 4100
	0    1    1    0   
$EndComp
Text Notes 750  6650 0    60   ~ 0
NOTE
Text Notes 1050 7100 0    60   ~ 0
GPIO16 -> Deep-sleep mode (Change Resistor)
NoConn ~ 3000 5850
NoConn ~ 3100 5850
NoConn ~ 3200 5850
NoConn ~ 3300 5850
NoConn ~ 3400 5850
NoConn ~ 3500 5850
$Comp
L CONN_01X02 J1
U 1 1 59D806A2
P 1000 1500
F 0 "J1" H 919 1225 50  0000 C CNN
F 1 "IN_PANEL" H 919 1316 50  0000 C CNN
F 2 "Connector_PinHeader_1.27mm:PinHeader_1x02_P1.27mm_Vertical" H 1000 1500 50  0001 C CNN
F 3 "" H 1000 1500 50  0001 C CNN
	1    1000 1500
	-1   0    0    1   
$EndComp
Text Notes 3100 3450 0    60   ~ 0
ESP8266
$Comp
L Conn_01x01 J14
U 1 1 59DA8FFF
P 8950 4850
F 0 "J14" H 8950 4950 50  0000 C CNN
F 1 "GND" V 9050 4900 50  0000 C CNN
F 2 "Connector_PinHeader_1.27mm:PinHeader_1x01_P1.27mm_Vertical" H 8950 4850 50  0001 C CNN
F 3 "" H 8950 4850 50  0001 C CNN
	1    8950 4850
	-1   0    0    1   
$EndComp
$Comp
L Conn_01x01 J10
U 1 1 59DA93EC
P 8950 3850
F 0 "J10" H 8950 3750 50  0000 C CNN
F 1 "V3.3" V 9050 3850 50  0000 C CNN
F 2 "Connector_PinHeader_1.27mm:PinHeader_1x01_P1.27mm_Vertical" H 8950 3850 50  0001 C CNN
F 3 "" H 8950 3850 50  0001 C CNN
	1    8950 3850
	-1   0    0    1   
$EndComp
$Comp
L Conn_01x01 J15
U 1 1 59DA9D39
P 8950 5100
F 0 "J15" H 8950 5200 50  0000 C CNN
F 1 "GND" V 9050 5150 50  0000 C CNN
F 2 "Connector_PinHeader_1.27mm:PinHeader_1x01_P1.27mm_Vertical" H 8950 5100 50  0001 C CNN
F 3 "" H 8950 5100 50  0001 C CNN
	1    8950 5100
	-1   0    0    1   
$EndComp
$Comp
L Conn_01x01 J11
U 1 1 59DA9D3F
P 8950 4100
F 0 "J11" H 8950 4000 50  0000 C CNN
F 1 "V3.3" V 9050 4100 50  0000 C CNN
F 2 "Connector_PinHeader_1.27mm:PinHeader_1x01_P1.27mm_Vertical" H 8950 4100 50  0001 C CNN
F 3 "" H 8950 4100 50  0001 C CNN
	1    8950 4100
	-1   0    0    1   
$EndComp
$Comp
L SW_Push SW1
U 1 1 59DAE930
P 1950 4200
F 0 "SW1" H 2000 4300 50  0000 L CNN
F 1 "Reset" H 1950 4140 50  0000 C CNN
F 2 "Buttons_Switches_SMD:SW_SPST_B3U-1000P" H 1950 4400 50  0001 C CNN
F 3 "" H 1950 4400 50  0001 C CNN
	1    1950 4200
	0    -1   -1   0   
$EndComp
$Comp
L R R1
U 1 1 59DAED0B
P 1750 4200
F 0 "R1" V 1830 4200 50  0000 C CNN
F 1 "4.7k" V 1750 4200 50  0000 C CNN
F 2 "Resistor_SMD:R_1206_3216Metric" V 1680 4200 50  0001 C CNN
F 3 "" H 1750 4200 50  0001 C CNN
	1    1750 4200
	-1   0    0    1   
$EndComp
$Comp
L GND #PWR09
U 1 1 59DB1839
P 1950 3900
F 0 "#PWR09" H 1950 3650 50  0001 C CNN
F 1 "GND" H 1950 3750 50  0000 C CNN
F 2 "" H 1950 3900 50  0001 C CNN
F 3 "" H 1950 3900 50  0001 C CNN
	1    1950 3900
	-1   0    0    1   
$EndComp
$Comp
L +3.3V #PWR010
U 1 1 59DB19A0
P 1750 3900
F 0 "#PWR010" H 1750 3750 50  0001 C CNN
F 1 "+3.3V" H 1650 4050 50  0000 C CNN
F 2 "" H 1750 3900 50  0001 C CNN
F 3 "" H 1750 3900 50  0001 C CNN
	1    1750 3900
	1    0    0    -1  
$EndComp
$Comp
L +3.3V #PWR011
U 1 1 59DB2842
P 1950 4850
F 0 "#PWR011" H 1950 4700 50  0001 C CNN
F 1 "+3.3V" V 2000 4900 50  0000 C CNN
F 2 "" H 1950 4850 50  0001 C CNN
F 3 "" H 1950 4850 50  0001 C CNN
	1    1950 4850
	0    -1   -1   0   
$EndComp
$Comp
L Conn_01x02 J3
U 1 1 59DB3C41
P 8000 3500
F 0 "J3" H 8000 3300 50  0000 C CNN
F 1 "TX_RX" H 8200 3450 50  0000 C CNN
F 2 "Connector_PinSocket_1.27mm:PinSocket_1x02_P1.27mm_Vertical" H 8000 3500 50  0001 C CNN
F 3 "" H 8000 3500 50  0001 C CNN
	1    8000 3500
	1    0    0    1   
$EndComp
Text Label 7650 3500 2    60   ~ 0
TXD
Text Label 7650 3400 2    60   ~ 0
RXD
Text Label 2250 4750 2    60   ~ 0
ADC
$Comp
L R R2
U 1 1 59DB7BDE
P 2000 4950
F 0 "R2" V 2080 4950 50  0000 C CNN
F 1 "470" V 2000 4950 50  0000 C CNN
F 2 "Resistor_SMD:R_1206_3216Metric" V 1930 4950 50  0001 C CNN
F 3 "" H 2000 4950 50  0001 C CNN
	1    2000 4950
	0    1    1    0   
$EndComp
Text Label 7700 5100 2    60   ~ 0
GPIO14
Text Label 1650 5150 2    60   ~ 0
GPIO12
Text Label 1650 5250 2    60   ~ 0
GPIO13
Text Label 4200 4950 0    60   ~ 0
GPIO4
$Comp
L Conn_01x01 J6
U 1 1 59DBC340
P 8000 4600
F 0 "J6" H 8000 4700 50  0000 C CNN
F 1 "GPIO12(D/A)" H 8300 4600 50  0000 C CNN
F 2 "Connector_PinHeader_1.27mm:PinHeader_1x01_P1.27mm_Vertical" H 8000 4600 50  0001 C CNN
F 3 "" H 8000 4600 50  0001 C CNN
	1    8000 4600
	1    0    0    -1  
$EndComp
Text Label 7700 4600 2    60   ~ 0
GPIO12
Text Label 1650 5050 2    60   ~ 0
GPIO14
$Comp
L Conn_01x01 J7
U 1 1 59DBCD29
P 8000 4850
F 0 "J7" H 8000 4950 50  0000 C CNN
F 1 "GPIO13(D)" H 8300 4850 50  0000 C CNN
F 2 "Connector_PinHeader_1.27mm:PinHeader_1x01_P1.27mm_Vertical" H 8000 4850 50  0001 C CNN
F 3 "" H 8000 4850 50  0001 C CNN
	1    8000 4850
	1    0    0    -1  
$EndComp
Text Label 7700 4850 2    60   ~ 0
GPIO13
$Comp
L Conn_01x01 J4
U 1 1 59DBE9CD
P 8000 4100
F 0 "J4" H 8000 4200 50  0000 C CNN
F 1 "GPIO4(D/A)" H 8300 4100 50  0000 C CNN
F 2 "Connector_PinHeader_1.27mm:PinHeader_1x01_P1.27mm_Vertical" H 8000 4100 50  0001 C CNN
F 3 "" H 8000 4100 50  0001 C CNN
	1    8000 4100
	1    0    0    -1  
$EndComp
Text Label 7650 4100 2    60   ~ 0
GPIO4
$Comp
L GND #PWR012
U 1 1 59DBFC12
P 9450 4600
F 0 "#PWR012" H 9450 4350 50  0001 C CNN
F 1 "GND" V 9450 4400 50  0000 C CNN
F 2 "" H 9450 4600 50  0001 C CNN
F 3 "" H 9450 4600 50  0001 C CNN
	1    9450 4600
	0    -1   -1   0   
$EndComp
$Comp
L Conn_01x01 J13
U 1 1 59DBFC1E
P 8950 4600
F 0 "J13" H 8950 4700 50  0000 C CNN
F 1 "GND" V 9050 4650 50  0000 C CNN
F 2 "Connector_PinHeader_1.27mm:PinHeader_1x01_P1.27mm_Vertical" H 8950 4600 50  0001 C CNN
F 3 "" H 8950 4600 50  0001 C CNN
	1    8950 4600
	-1   0    0    1   
$EndComp
$Comp
L +3.3V #PWR013
U 1 1 59DC0FFE
P 9450 4350
F 0 "#PWR013" H 9450 4200 50  0001 C CNN
F 1 "+3.3V" V 9450 4600 50  0000 C CNN
F 2 "" H 9450 4350 50  0001 C CNN
F 3 "" H 9450 4350 50  0001 C CNN
	1    9450 4350
	0    1    1    0   
$EndComp
$Comp
L Conn_01x01 J12
U 1 1 59DC1004
P 8950 4350
F 0 "J12" H 8950 4250 50  0000 C CNN
F 1 "V3.3" V 9050 4350 50  0000 C CNN
F 2 "Connector_PinHeader_1.27mm:PinHeader_1x01_P1.27mm_Vertical" H 8950 4350 50  0001 C CNN
F 3 "" H 8950 4350 50  0001 C CNN
	1    8950 4350
	-1   0    0    1   
$EndComp
Text Notes 8150 2600 0    118  ~ 0
IO CONN
$Comp
L GND #PWR014
U 1 1 59DEED5A
P 1400 1650
F 0 "#PWR014" H 1400 1400 50  0001 C CNN
F 1 "GND" H 1550 1600 50  0000 C CNN
F 2 "" H 1400 1650 50  0001 C CNN
F 3 "" H 1400 1650 50  0001 C CNN
	1    1400 1650
	1    0    0    -1  
$EndComp
Text GLabel 1350 1450 2    60   Input ~ 0
IN+
Text GLabel 1900 1450 0    60   Input ~ 0
BAT+
Wire Wire Line
	2350 5350 2250 5350
Wire Wire Line
	4250 5350 4150 5350
Wire Wire Line
	3250 1700 3250 1800
Wire Wire Line
	3550 1400 4700 1400
Connection ~ 4100 1400
Connection ~ 3250 1700
Connection ~ 2350 1400
Wire Wire Line
	4200 4850 4150 4850
Wire Notes Line
	1150 950  5000 950 
Wire Notes Line
	5000 950  5000 2200
Wire Notes Line
	5000 2200 1150 2200
Wire Notes Line
	1150 2200 1150 950 
Wire Notes Line
	650  7650 6650 7650
Wire Wire Line
	4200 4950 4150 4950
Wire Notes Line
	1050 7000 1200 7000
Wire Wire Line
	2100 1650 2100 1700
Wire Wire Line
	2100 1700 4100 1700
Wire Notes Line
	2450 5800 4100 5800
Wire Notes Line
	4100 5800 4100 4100
Wire Notes Line
	4100 4100 2450 4100
Wire Notes Line
	2450 4100 2450 5800
Wire Wire Line
	4150 4750 4200 4750
Wire Wire Line
	4150 4650 4200 4650
Wire Wire Line
	4150 5150 4550 5150
Wire Wire Line
	1950 3900 1950 4000
Wire Wire Line
	1950 4400 1950 4650
Wire Wire Line
	1750 4050 1750 3900
Wire Wire Line
	1750 4350 1750 4950
Wire Wire Line
	1750 4500 1950 4500
Connection ~ 1950 4500
Wire Wire Line
	1950 4650 2350 4650
Wire Wire Line
	7650 3400 7800 3400
Wire Wire Line
	7650 3500 7800 3500
Wire Wire Line
	2350 4750 2250 4750
Wire Wire Line
	2350 4850 2300 4850
Wire Wire Line
	2350 4950 2150 4950
Wire Wire Line
	1750 4950 1850 4950
Connection ~ 1750 4500
Wire Notes Line
	6650 7650 6650 6700
Wire Notes Line
	6650 6700 650  6700
Wire Notes Line
	650  6700 650  7650
Wire Wire Line
	2350 5050 1650 5050
Wire Wire Line
	2350 5150 1650 5150
Wire Wire Line
	2350 5250 1650 5250
Wire Wire Line
	7800 5100 7700 5100
Wire Wire Line
	7800 4600 7700 4600
Wire Wire Line
	7800 4850 7700 4850
Wire Wire Line
	7650 4100 7800 4100
Wire Wire Line
	9450 3850 9150 3850
Wire Wire Line
	9150 4100 9450 4100
Wire Wire Line
	9150 4350 9450 4350
Wire Wire Line
	9450 4600 9150 4600
Wire Wire Line
	9150 4850 9450 4850
Wire Wire Line
	9150 5100 9450 5100
Wire Wire Line
	1200 1550 1400 1550
Wire Wire Line
	1400 1550 1400 1650
Wire Wire Line
	1400 1650 2100 1650
Wire Wire Line
	2050 1400 2950 1400
$Sheet
S 1350 1300 550  450 
U 59DAA3AB
F0 "TP4056" 60
F1 "TP4056.sch" 60
$EndSheet
Wire Notes Line
	1100 3500 5900 3500
Wire Notes Line
	1100 6100 5900 6100
Wire Notes Line
	1100 6100 1100 3500
Wire Wire Line
	1200 1450 1350 1450
Wire Wire Line
	1900 1450 2050 1450
Wire Wire Line
	2050 1450 2050 1400
$Comp
L Conn_01x01 J16
U 1 1 59E55F20
P 2150 1150
F 0 "J16" H 2150 1250 50  0000 C CNN
F 1 "BAT+" V 2250 1150 50  0000 C CNN
F 2 "Connector_PinHeader_1.27mm:PinHeader_1x01_P1.27mm_Vertical" H 2150 1150 50  0001 C CNN
F 3 "" H 2150 1150 50  0001 C CNN
	1    2150 1150
	0    -1   -1   0   
$EndComp
Wire Wire Line
	2150 1350 2150 1400
Connection ~ 2150 1400
$Comp
L R R4
U 1 1 5AE4F381
P 5000 5800
F 0 "R4" V 5050 5950 50  0000 C CNN
F 1 "10k" V 5000 5800 50  0000 C CNN
F 2 "Resistor_SMD:R_1206_3216Metric" V 4930 5800 50  0001 C CNN
F 3 "" H 5000 5800 50  0001 C CNN
	1    5000 5800
	0    1    1    0   
$EndComp
$Comp
L GND #PWR015
U 1 1 5AE4F5FB
P 5250 5800
F 0 "#PWR015" H 5250 5550 50  0001 C CNN
F 1 "GND" V 5250 5600 50  0000 C CNN
F 2 "" H 5250 5800 50  0001 C CNN
F 3 "" H 5250 5800 50  0001 C CNN
	1    5250 5800
	0    -1   -1   0   
$EndComp
$Comp
L R R3
U 1 1 5AE4FA26
P 5000 5650
F 0 "R3" V 5050 5500 50  0000 C CNN
F 1 "10k" V 5000 5650 50  0000 C CNN
F 2 "Resistor_SMD:R_1206_3216Metric" V 4930 5650 50  0001 C CNN
F 3 "" H 5000 5650 50  0001 C CNN
	1    5000 5650
	0    -1   -1   0   
$EndComp
Wire Wire Line
	4150 5250 4550 5250
$Comp
L +3.3V #PWR016
U 1 1 5AE501BD
P 5250 5650
F 0 "#PWR016" H 5250 5500 50  0001 C CNN
F 1 "+3.3V" V 5250 5850 50  0000 C CNN
F 2 "" H 5250 5650 50  0001 C CNN
F 3 "" H 5250 5650 50  0001 C CNN
	1    5250 5650
	0    1    1    0   
$EndComp
$Comp
L GND #PWR017
U 1 1 5AF354A6
P 9450 5350
F 0 "#PWR017" H 9450 5100 50  0001 C CNN
F 1 "GND" V 9450 5150 50  0000 C CNN
F 2 "" H 9450 5350 50  0001 C CNN
F 3 "" H 9450 5350 50  0001 C CNN
	1    9450 5350
	0    -1   -1   0   
$EndComp
Wire Wire Line
	9450 5350 9150 5350
Text Label 4200 4850 0    60   ~ 0
GPIO5
Text Label 4200 4750 0    60   ~ 0
RXD
Text Label 4200 4650 0    60   ~ 0
TXD
Text Notes 1050 7300 0    60   ~ 0
No Programing
Text Label 4200 5050 0    60   ~ 0
GPIO0
Wire Wire Line
	4200 5050 4150 5050
$Comp
L Conn_01x01 J17
U 1 1 5B0DE3FF
P 8000 4350
F 0 "J17" H 8000 4450 50  0000 C CNN
F 1 "GPIO0(D)" H 8300 4350 50  0000 C CNN
F 2 "Connector_PinHeader_1.27mm:PinHeader_1x01_P1.27mm_Vertical" H 8000 4350 50  0001 C CNN
F 3 "" H 8000 4350 50  0001 C CNN
	1    8000 4350
	1    0    0    -1  
$EndComp
Wire Wire Line
	7650 4350 7800 4350
Text Label 7650 4350 2    60   ~ 0
GPIO0
$Comp
L Conn_01x01 J18
U 1 1 5B0F3968
P 8000 3850
F 0 "J18" H 8000 3950 50  0000 C CNN
F 1 "GPIO5(D)" H 8300 3850 50  0000 C CNN
F 2 "Connector_PinHeader_1.27mm:PinHeader_1x01_P1.27mm_Vertical" H 8000 3850 50  0001 C CNN
F 3 "" H 8000 3850 50  0001 C CNN
	1    8000 3850
	1    0    0    -1  
$EndComp
Text Label 7650 3850 2    60   ~ 0
GPIO5
Wire Wire Line
	7650 3850 7800 3850
$Comp
L MCP1700-3302E_SOT23 U1
U 1 1 5B2AA25C
P 3250 1400
F 0 "U1" H 3350 1150 50  0000 C CNN
F 1 "MCP1700-3302E_SOT23" H 2800 1550 50  0000 L CNN
F 2 "Package_TO_SOT_SMD:SOT-23" H 3250 1625 50  0001 C CNN
F 3 "" H 3250 1400 50  0001 C CNN
	1    3250 1400
	1    0    0    -1  
$EndComp
Text Label 5000 4250 2    60   ~ 0
ADC
Wire Wire Line
	5000 4250 5250 4250
$Comp
L R R10
U 1 1 5B2AEC4E
P 5250 4450
F 0 "R10" V 5330 4450 50  0000 C CNN
F 1 "100k" V 5250 4450 50  0000 C CNN
F 2 "Resistor_SMD:R_1206_3216Metric" V 5180 4450 50  0001 C CNN
F 3 "" H 5250 4450 50  0001 C CNN
F 4 "1%" V 5250 4450 60  0001 C CNN "Tolerancia"
	1    5250 4450
	1    0    0    -1  
$EndComp
$Comp
L R R5
U 1 1 5B2AECC9
P 5250 4050
F 0 "R5" V 5330 4050 50  0000 C CNN
F 1 "220k" V 5250 4050 50  0000 C CNN
F 2 "Resistor_SMD:R_1206_3216Metric" V 5180 4050 50  0001 C CNN
F 3 "" H 5250 4050 50  0001 C CNN
F 4 "1%" V 5250 4050 60  0001 C CNN "Tolerancia"
	1    5250 4050
	1    0    0    -1  
$EndComp
Wire Wire Line
	5250 4200 5250 4300
Connection ~ 5250 4250
$Comp
L GND #PWR018
U 1 1 5B2AEE00
P 5250 4650
F 0 "#PWR018" H 5250 4400 50  0001 C CNN
F 1 "GND" H 5250 4500 50  0000 C CNN
F 2 "" H 5250 4650 50  0001 C CNN
F 3 "" H 5250 4650 50  0001 C CNN
	1    5250 4650
	1    0    0    -1  
$EndComp
Wire Wire Line
	5250 4600 5250 4650
Text Label 5250 3850 0    60   ~ 0
ADC_EXT
Wire Wire Line
	5250 3850 5250 3900
Wire Notes Line
	5900 6100 5900 3500
$Comp
L Conn_01x01 J9
U 1 1 5B2B080A
P 8000 5350
F 0 "J9" H 8000 5450 50  0000 C CNN
F 1 "ADC" H 8150 5350 50  0000 C CNN
F 2 "Connector_PinHeader_1.27mm:PinHeader_1x01_P1.27mm_Vertical" H 8000 5350 50  0001 C CNN
F 3 "" H 8000 5350 50  0001 C CNN
	1    8000 5350
	1    0    0    -1  
$EndComp
Wire Wire Line
	7800 5350 7700 5350
Text Label 7700 5350 2    60   ~ 0
ADC_EXT
$Comp
L GND #PWR019
U 1 1 5B2B17F4
P 10250 1450
F 0 "#PWR019" H 10250 1200 50  0001 C CNN
F 1 "GND" H 10250 1300 50  0000 C CNN
F 2 "" H 10250 1450 50  0001 C CNN
F 3 "" H 10250 1450 50  0001 C CNN
	1    10250 1450
	1    0    0    -1  
$EndComp
Wire Wire Line
	10250 1450 10250 1300
$Comp
L PWR_FLAG #FLG020
U 1 1 5B2B1A18
P 10250 1300
F 0 "#FLG020" H 10250 1375 50  0001 C CNN
F 1 "PWR_FLAG" H 10250 1450 50  0000 C CNN
F 2 "" H 10250 1300 50  0001 C CNN
F 3 "" H 10250 1300 50  0001 C CNN
	1    10250 1300
	1    0    0    -1  
$EndComp
Wire Notes Line
	1500 4500 1500 3650
Wire Notes Line
	1500 3650 2100 3650
Wire Notes Line
	2100 3650 2100 4500
Wire Notes Line
	5650 3700 5650 4900
Wire Notes Line
	5650 4900 4800 4900
Wire Notes Line
	4800 4900 4800 3700
Wire Notes Line
	4800 3700 5650 3700
Wire Notes Line
	8150 3300 8350 3300
Wire Notes Line
	8350 3300 8350 3600
Wire Notes Line
	8350 3600 8150 3600
$Comp
L R R7
U 1 1 5B4C08EB
P 2150 4850
F 0 "R7" V 2230 4850 50  0000 C CNN
F 1 "10k" V 2150 4850 50  0000 C CNN
F 2 "Resistor_SMD:R_1206_3216Metric" V 2080 4850 50  0001 C CNN
F 3 "" H 2150 4850 50  0001 C CNN
	1    2150 4850
	0    1    -1   0   
$EndComp
Wire Wire Line
	2000 4850 1950 4850
Wire Wire Line
	2350 1600 2350 1700
Connection ~ 2350 1700
$Comp
L Conn_01x01 J2
U 1 1 5B4C1375
P 2550 1150
F 0 "J2" H 2550 1250 50  0000 C CNN
F 1 "BAT+" V 2650 1150 50  0000 C CNN
F 2 "Connector_PinHeader_1.27mm:PinHeader_1x01_P1.27mm_Vertical" H 2550 1150 50  0001 C CNN
F 3 "" H 2550 1150 50  0001 C CNN
	1    2550 1150
	0    -1   -1   0   
$EndComp
Wire Wire Line
	2550 1350 2550 1400
Connection ~ 2550 1400
$Comp
L Conn_01x01 J23
U 1 1 5B4C1BA7
P 8950 5850
F 0 "J23" H 8950 5950 50  0000 C CNN
F 1 "GND" V 9050 5850 50  0000 C CNN
F 2 "Connector_PinHeader_1.27mm:PinHeader_1x01_P1.27mm_Vertical" H 8950 5850 50  0001 C CNN
F 3 "" H 8950 5850 50  0001 C CNN
	1    8950 5850
	-1   0    0    1   
$EndComp
$Comp
L GND #PWR021
U 1 1 5B4C1BAD
P 9450 5600
F 0 "#PWR021" H 9450 5350 50  0001 C CNN
F 1 "GND" V 9450 5400 50  0000 C CNN
F 2 "" H 9450 5600 50  0001 C CNN
F 3 "" H 9450 5600 50  0001 C CNN
	1    9450 5600
	0    -1   -1   0   
$EndComp
$Comp
L Conn_01x01 J22
U 1 1 5B4C1BB3
P 8950 5600
F 0 "J22" H 8950 5700 50  0000 C CNN
F 1 "GND" V 9050 5650 50  0000 C CNN
F 2 "Connector_PinHeader_1.27mm:PinHeader_1x01_P1.27mm_Vertical" H 8950 5600 50  0001 C CNN
F 3 "" H 8950 5600 50  0001 C CNN
	1    8950 5600
	-1   0    0    1   
$EndComp
Wire Wire Line
	9150 5600 9450 5600
$Comp
L GND #PWR022
U 1 1 5B4C1BBA
P 9450 5850
F 0 "#PWR022" H 9450 5600 50  0001 C CNN
F 1 "GND" V 9450 5650 50  0000 C CNN
F 2 "" H 9450 5850 50  0001 C CNN
F 3 "" H 9450 5850 50  0001 C CNN
	1    9450 5850
	0    -1   -1   0   
$EndComp
Wire Wire Line
	9450 5850 9150 5850
$Comp
L +3.3V #PWR023
U 1 1 5B4C22BE
P 9450 3100
F 0 "#PWR023" H 9450 2950 50  0001 C CNN
F 1 "+3.3V" V 9450 3350 50  0000 C CNN
F 2 "" H 9450 3100 50  0001 C CNN
F 3 "" H 9450 3100 50  0001 C CNN
	1    9450 3100
	0    1    1    0   
$EndComp
$Comp
L +3.3V #PWR024
U 1 1 5B4C22C4
P 9450 3350
F 0 "#PWR024" H 9450 3200 50  0001 C CNN
F 1 "+3.3V" V 9450 3600 50  0000 C CNN
F 2 "" H 9450 3350 50  0001 C CNN
F 3 "" H 9450 3350 50  0001 C CNN
	1    9450 3350
	0    1    1    0   
$EndComp
$Comp
L Conn_01x01 J19
U 1 1 5B4C22CA
P 8950 3100
F 0 "J19" H 8950 3000 50  0000 C CNN
F 1 "V3.3" V 9050 3100 50  0000 C CNN
F 2 "Connector_PinHeader_1.27mm:PinHeader_1x01_P1.27mm_Vertical" H 8950 3100 50  0001 C CNN
F 3 "" H 8950 3100 50  0001 C CNN
	1    8950 3100
	-1   0    0    1   
$EndComp
$Comp
L Conn_01x01 J20
U 1 1 5B4C22D0
P 8950 3350
F 0 "J20" H 8950 3250 50  0000 C CNN
F 1 "V3.3" V 9050 3350 50  0000 C CNN
F 2 "Connector_PinHeader_1.27mm:PinHeader_1x01_P1.27mm_Vertical" H 8950 3350 50  0001 C CNN
F 3 "" H 8950 3350 50  0001 C CNN
	1    8950 3350
	-1   0    0    1   
$EndComp
$Comp
L +3.3V #PWR025
U 1 1 5B4C22D6
P 9450 3600
F 0 "#PWR025" H 9450 3450 50  0001 C CNN
F 1 "+3.3V" V 9450 3850 50  0000 C CNN
F 2 "" H 9450 3600 50  0001 C CNN
F 3 "" H 9450 3600 50  0001 C CNN
	1    9450 3600
	0    1    1    0   
$EndComp
$Comp
L Conn_01x01 J21
U 1 1 5B4C22DC
P 8950 3600
F 0 "J21" H 8950 3500 50  0000 C CNN
F 1 "V3.3" V 9050 3600 50  0000 C CNN
F 2 "Connector_PinHeader_1.27mm:PinHeader_1x01_P1.27mm_Vertical" H 8950 3600 50  0001 C CNN
F 3 "" H 8950 3600 50  0001 C CNN
	1    8950 3600
	-1   0    0    1   
$EndComp
Wire Wire Line
	9450 3100 9150 3100
Wire Wire Line
	9150 3350 9450 3350
Wire Wire Line
	9150 3600 9450 3600
Text Label 4550 5250 0    60   ~ 0
GPIO15
Text Label 4550 5150 0    60   ~ 0
GPIO2
Text Label 4850 5800 2    60   ~ 0
GPIO15
Text Label 4850 5650 2    60   ~ 0
GPIO2
Wire Wire Line
	5150 5800 5250 5800
Wire Wire Line
	5150 5650 5250 5650
$Comp
L Conn_01x01 J24
U 1 1 5B4C3A4D
P 8000 5600
F 0 "J24" H 8000 5700 50  0000 C CNN
F 1 "GPIO2" H 8200 5600 50  0000 C CNN
F 2 "Connector_PinHeader_1.27mm:PinHeader_1x01_P1.27mm_Vertical" H 8000 5600 50  0001 C CNN
F 3 "" H 8000 5600 50  0001 C CNN
	1    8000 5600
	1    0    0    -1  
$EndComp
Wire Wire Line
	7800 5600 7700 5600
$Comp
L Conn_01x01 J25
U 1 1 5B4C3A56
P 8000 5850
F 0 "J25" H 8000 5950 50  0000 C CNN
F 1 "GPIO15" H 8200 5850 50  0000 C CNN
F 2 "Connector_PinHeader_1.27mm:PinHeader_1x01_P1.27mm_Vertical" H 8000 5850 50  0001 C CNN
F 3 "" H 8000 5850 50  0001 C CNN
	1    8000 5850
	1    0    0    -1  
$EndComp
Wire Wire Line
	7800 5850 7700 5850
Text Label 7700 5600 2    60   ~ 0
GPIO2
Text Label 7700 5850 2    60   ~ 0
GPIO15
Wire Notes Line
	9200 2650 9200 6200
Wire Notes Line
	9200 2650 7750 2650
Wire Notes Line
	9200 6200 7750 6200
Wire Notes Line
	7750 6200 7750 2650
Wire Notes Line
	9050 6000 8750 6000
Wire Notes Line
	8750 6000 8750 2950
Wire Notes Line
	8750 2950 9050 2950
Wire Notes Line
	8750 4450 8900 4450
Wire Notes Line
	8900 4450 8900 4500
Wire Notes Line
	8900 4500 8750 4500
$Comp
L LOGO Logo1
U 1 1 5B4D0988
P 7300 6650
F 0 "Logo1" H 7300 6576 60  0001 C CNN
F 1 "LOGO" H 7300 6724 60  0001 C CNN
F 2 "" H 7300 6650 60  0001 C CNN
F 3 "" H 7300 6650 60  0001 C CNN
	1    7300 6650
	1    0    0    -1  
$EndComp
$EndSCHEMATC
