EESchema Schematic File Version 2
LIBS:power
LIBS:device
LIBS:transistors
LIBS:conn
LIBS:linear
LIBS:regul
LIBS:74xx
LIBS:cmos4000
LIBS:adc-dac
LIBS:memory
LIBS:xilinx
LIBS:microcontrollers
LIBS:dsp
LIBS:microchip
LIBS:analog_switches
LIBS:motorola
LIBS:texas
LIBS:intel
LIBS:audio
LIBS:interface
LIBS:digital-audio
LIBS:philips
LIBS:display
LIBS:cypress
LIBS:siliconi
LIBS:opto
LIBS:atmel
LIBS:contrib
LIBS:valves
LIBS:ESP8266
LIBS:tp4056
LIBS:switches
LIBS:licencia_CC_by_SA
LIBS:ht7333-1
LIBS:FrosTool_ESP8266-cache
EELAYER 25 0
EELAYER END
$Descr A4 11693 8268
encoding utf-8
Sheet 2 2
Title "Linear Li-lon Battery Charger TP4056"
Date ""
Rev "1"
Comp "Eco-Tec"
Comment1 "Se distribuye bajo una Licencia Creative Commons Atribución-CompartirIgual 4.0 "
Comment2 "@fandres"
Comment3 ""
Comment4 ""
$EndDescr
$Comp
L TP4056 U3
U 1 1 59DAA881
P 3150 2450
F 0 "U3" H 2800 2850 60  0000 L CNN
F 1 "TP4056" H 3500 2850 60  0000 R CNN
F 2 "Package_SOIC:Diodes_PSOP-8" H 3150 2450 60  0001 C CNN
F 3 "" H 3150 2450 60  0000 C CNN
	1    3150 2450
	1    0    0    -1  
$EndComp
Text GLabel 1150 2200 0    60   Input ~ 0
IN+
$Comp
L R R6
U 1 1 59DAAB4A
P 1600 2200
F 0 "R6" V 1680 2200 50  0000 C CNN
F 1 "0.4" V 1600 2200 50  0000 C CNN
F 2 "Resistor_SMD:R_1206_3216Metric" V 1530 2200 50  0001 C CNN
F 3 "" H 1600 2200 50  0001 C CNN
	1    1600 2200
	0    1    1    0   
$EndComp
Wire Wire Line
	1450 2200 1150 2200
Wire Wire Line
	2650 2300 2200 2300
Wire Wire Line
	2200 2300 2200 2200
Connection ~ 2200 2200
Wire Wire Line
	3150 2850 3150 3000
$Comp
L GND #PWR026
U 1 1 59DAB02E
P 2000 1750
F 0 "#PWR026" H 2000 1500 50  0001 C CNN
F 1 "GND" H 2000 1600 50  0000 C CNN
F 2 "" H 2000 1750 50  0001 C CNN
F 3 "" H 2000 1750 50  0001 C CNN
	1    2000 1750
	-1   0    0    1   
$EndComp
Wire Wire Line
	3650 2500 4250 2500
$Comp
L C C3
U 1 1 59DAB50D
P 2000 1950
F 0 "C3" H 2025 2050 50  0000 L CNN
F 1 "10uF" H 2025 1850 50  0000 L CNN
F 2 "Capacitor_SMD:C_1206_3216Metric" H 2038 1800 50  0001 C CNN
F 3 "" H 2000 1950 50  0001 C CNN
	1    2000 1950
	1    0    0    -1  
$EndComp
Wire Notes Line
	6750 6550 6750 7700
Wire Notes Line
	6750 7700 700  7700
Wire Notes Line
	700  7700 700  6550
Wire Notes Line
	700  6550 6750 6550
Text Notes 900  6450 0    157  ~ 0
NT
$Comp
L R R9
U 1 1 59DABBF0
P 3750 2800
F 0 "R9" V 3830 2800 50  0000 C CNN
F 1 "1.2k" V 3750 2800 50  0000 C CNN
F 2 "Resistor_SMD:R_1206_3216Metric" V 3680 2800 50  0001 C CNN
F 3 "" H 3750 2800 50  0001 C CNN
	1    3750 2800
	1    0    0    -1  
$EndComp
$Comp
L GND #PWR027
U 1 1 59DABC8B
P 3750 3050
F 0 "#PWR027" H 3750 2800 50  0001 C CNN
F 1 "GND" H 3750 2900 50  0000 C CNN
F 2 "" H 3750 3050 50  0001 C CNN
F 3 "" H 3750 3050 50  0001 C CNN
	1    3750 3050
	1    0    0    -1  
$EndComp
Wire Wire Line
	3750 2950 3750 3050
Wire Wire Line
	3750 2650 3750 2600
Wire Wire Line
	3750 2600 3650 2600
Wire Wire Line
	3850 2200 3850 2000
Text GLabel 3850 2000 1    60   Input ~ 0
BAT+
Wire Wire Line
	3650 2200 3900 2200
$Comp
L C C4
U 1 1 59DAC301
P 4050 2200
F 0 "C4" H 4075 2300 50  0000 L CNN
F 1 "10uF" H 4075 2100 50  0000 L CNN
F 2 "Capacitor_SMD:C_1206_3216Metric" H 4088 2050 50  0001 C CNN
F 3 "" H 4050 2200 50  0001 C CNN
	1    4050 2200
	0    1    1    0   
$EndComp
Connection ~ 3850 2200
Wire Wire Line
	4200 2200 4350 2200
Wire Wire Line
	4250 2500 4250 2200
$Comp
L GND #PWR028
U 1 1 59DAC4CB
P 4350 2200
F 0 "#PWR028" H 4350 1950 50  0001 C CNN
F 1 "GND" H 4350 2050 50  0000 C CNN
F 2 "" H 4350 2200 50  0001 C CNN
F 3 "" H 4350 2200 50  0001 C CNN
	1    4350 2200
	0    -1   -1   0   
$EndComp
Connection ~ 4250 2200
Connection ~ 3750 3000
Wire Wire Line
	2000 1750 2000 1800
Text Notes 650  1100 0    394  ~ 79
TP4056
NoConn ~ 3200 2850
Wire Wire Line
	2650 2200 1750 2200
Wire Wire Line
	3150 3000 3750 3000
NoConn ~ 2650 2500
NoConn ~ 2650 2600
Wire Wire Line
	2000 2100 2000 2200
Connection ~ 2000 2200
Text Notes 1400 2150 0    60   ~ 0
0.2 - 0.4
$Comp
L LOGO #G?
U 1 1 5B4D12B9
P 7300 6650
F 0 "#G?" H 7300 6576 60  0001 C CNN
F 1 "LOGO" H 7300 6724 60  0001 C CNN
F 2 "" H 7300 6650 60  0001 C CNN
F 3 "" H 7300 6650 60  0001 C CNN
	1    7300 6650
	1    0    0    -1  
$EndComp
Text Notes 3950 3100 1    60   ~ 0
10k - 1.2k
$EndSCHEMATC
